%YAML 1.1
%TAG !u! tag:unity3d.com,2011:
--- !u!114 &11400000
MonoBehaviour:
  m_ObjectHideFlags: 0
  m_CorrespondingSourceObject: {fileID: 0}
  m_PrefabInstance: {fileID: 0}
  m_PrefabAsset: {fileID: 0}
  m_GameObject: {fileID: 0}
  m_Enabled: 1
  m_EditorHideFlags: 0
  m_Script: {fileID: 11500000, guid: b8fa44b55ead3254ba338a80004a77c3, type: 3}
  m_Name: heal_energybooster
  m_EditorClassIdentifier: 
  itemName: Energy Booster
  price: 0
  description: Restores 10% energy
  type: 3
  healthPercentAmount: 0
  energyPercentAmount: 10
